evws1/software/atmega324p_u1/gtkwave_trace.vcd
$timescale 1ns $end
$scope module logic $end
$var wire 8 ! UDR0 $end
$var wire 1 " UDRE0 $end
$var wire 8 # UDR1 $end
$var wire 1 $ UDRE1 $end
$upscope $end
$enddefinitions $end
$dumpvars
bxxxxxxxx !
x"
bxxxxxxxx #
x$
$end
#145750
0"
#147200
0$
#164650
1$
#165550
b00001010 #
#174200
0$
#359500
1$
#360400
b00001101 #
#369050
0$
#554350
1$
#555250
b01001100 #
#563900
0$
#749200
1$
#750100
b01100101 #
#758750
0$
#944050
1$
#944950
b01110110 #
#953600
0$
#1138900
1$
#1139800
b01100101 #
#1148450
0$
#1333750
1$
#1334650
b01101100 #
#1343300
0$
#1528600
1$
#1529500
b00100000 #
#1538150
0$
#1723450
1$
#1724350
b00110100 #
#1733000
0$
#1918300
1$
#1919200
b00100000 #
#1927850
0$
#2113150
1$
#2114050
b01110101 #
#2122700
0$
#2308000
1$
#2308900
b01110011 #
#2317550
0$
#2502850
1$
#2503750
b01100101 #
#2512400
0$
#2697700
1$
#2698600
b01110010 #
#2707250
0$
#2892550
1$
#2893450
b00100000 #
#2902100
0$
#3087400
1$
#3088300
b01110011 #
#3096950
0$
#3282250
1$
#3283150
b01110000 #
#3291800
0$
#3477100
1$
#3478000
b01100101 #
#3486650
0$
#3671950
1$
#3672850
b01100011 #
#3681500
0$
#3866800
1$
#3867700
b01101001 #
#3876350
0$
#4061650
1$
#4062550
b01100110 #
#4071200
0$
#4256500
1$
#4257400
b01101001 #
#4266050
0$
#4451350
1$
#4452250
b01100011 #
#4460900
0$
#4646200
1$
#4647100
b00100000 #
#4655750
0$
#4841050
1$
#4841950
b01100010 #
#4850600
0$
#5035900
1$
#5036800
b01101111 #
#5045450
0$
#5230750
1$
#5231650
b01100001 #
#5240300
0$
#5425600
1$
#5426500
b01110010 #
#5435150
0$
#5620450
1$
#5621350
b01100100 #
#5630000
0$
#5815300
1$
#5816200
b00100000 #
#5824850
0$
#6010150
1$
#6011050
b00101000 #
#6019700
0$
#6205000
1$
#6205900
b01000001 #
#6214550
0$
#6399850
1$
#6400750
b01110100 #
#6409400
0$
#6594700
1$
#6595600
b01101101 #
#6604250
0$
#6789550
1$
#6790450
b01100101 #
#6799100
0$
#6984400
1$
#6985300
b01100111 #
#6993950
0$
#7179250
1$
#7180150
b01100001 #
#7188800
0$
#7374100
1$
#7375000
b00110011 #
#7383650
0$
#7568950
1$
#7569850
b00110010 #
#7578500
0$
#7763800
1$
#7764700
b00110100 #
#7773350
0$
#7958650
1$
#7959550
b01010000 #
#7968200
0$
#8153500
1$
#8154400
b00100000 #
#8163050
0$
#8348350
1$
#8349250
b00110001 #
#8357900
0$
#8543200
1$
#8544100
b00110010 #
#8552750
0$
#8738050
1$
#8738950
b01001101 #
#8747600
0$
#8932900
1$
#8933800
b01001000 #
#8942450
0$
#9127750
1$
#9128650
b01111010 #
#9137300
0$
#9322600
1$
#9323500
b00101001 #
#9333850
0$
#9517450
1$
#9518350
b00100000 #
#9528500
0$
#9712100
1$
#9713000
b01001010 #
#9721650
0$
#9906950
1$
#9907850
b01100001 #
#9916500
0$
#10101800
1$
#10102700
b01101110 #
#10111350
0$
#10296650
1$
#10297550
b00100000 #
#10306200
0$
#10491500
1$
#10492400
b00110010 #
#10501050
0$
#10686350
1$
#10687250
b00110111 #
#10695900
0$
#10881200
1$
#10882100
b00100000 #
#10890750
0$
#11076050
1$
#11076950
b00110010 #
#11085600
0$
#11270900
1$
#11271800
b00110000 #
#11280450
0$
#11465750
1$
#11466650
b00110010 #
#11475300
0$
#11660600
1$
#11661500
b00110001 #
#11671850
0$
#11855450
1$
#11856350
b00100000 #
#11866500
0$
#12050100
1$
#12051000
b00110001 #
#12059650
0$
#12244950
1$
#12245850
b00110101 #
#12254500
0$
#12439800
1$
#12440700
b00111010 #
#12449350
0$
#12634650
1$
#12635550
b00110101 #
#12644200
0$
#12829500
1$
#12830400
b00111001 #
#12839050
0$
#13024350
1$
#13025250
b00111010 #
#13033900
0$
#13219200
1$
#13220100
b00110001 #
#13228750
0$
#13414050
1$
#13414950
b00111001 #
#13425300
0$
#13608900
1$
#13609800
b00100000 #
#13619950
0$
#13803550
1$
#13804450
b00001101 #
#13813100
0$
#13998400
1$
#13999300
b00001010 #
